^C:\USERS\200122351\SOURCE\REPOS\LS.FILEIO\LS.FILEIO\MAIN.CPP
C:\USERS\200122351\SOURCE\REPOS\LS.FILEIO\LS.FILEIO\DEBUG\VC141.PDB
C:\USERS\200122351\SOURCE\REPOS\LS.FILEIO\LS.FILEIO\DEBUG\VC141.IDB
C:\USERS\200122351\SOURCE\REPOS\LS.FILEIO\LS.FILEIO\DEBUG\MAIN.OBJ
